…
## See also

<https://github.com/hsosik/ifcb-analysis>

## Examples

``` r
mat_file <- system.file("exdata/example_summary.mat", package = "iRfcb")

summary_data <- ifcb_read_summary(mat_file, biovolume = FALSE, threshold = "opt")
print(summary_data)
#> # A tibble: 23 × 12
#>    sample  timestamp           date        year month   day time     ifcb_number
#>    <chr>   <dttm>              <date>     <dbl> <dbl> <int> <time>   <chr>      
#>  1 D20230… 2023-08-10 11:30:59 2023-08-10  2023     8    10 11:30:59 IFCB134    
#>  2 D20230… 2023-08-10 11:30:59 2023-08-10  2023     8    10 11:30:59 IFCB134    
#>  3 D20230… 2023-08-10 11:30:59 2023-08-10  2023     8    10 11:30:59 IFCB134    
#>  4 D20230… 2023-08-10 11:30:59 2023-08-10  2023     8    10 11:30:59 IFCB134    
#>  5 D20230… 2023-08-10 11:30:59 2023-08-10  2023     8    10 11:30:59 IFCB134    
#>  6 D20230… 2023-08-10 11:30:59 2023-08-10  2023     8    10 11:30:59 IFCB134    
#>  7 D20230… 2023-08-10 11:30:59 2023-08-10  2023     8    10 11:30:59 IFCB134    
#>  8 D20230… 2023-08-10 11:30:59 2023-08-10  2023     8    10 11:30:59 IFCB134    
#>  9 D20230… 2023-08-10 11:30:59 2023-08-10  2023     8    10 11:30:59 IFCB134    
#> 10 D20230… 2023-08-10 11:30:59 2023-08-10  2023     8    10 11:30:59 IFCB134    
#> # ℹ 13 more rows
#> # ℹ 4 more variables: ml_analyzed <dbl>, species <chr>, counts <dbl>,
#> #   counts_per_liter <dbl>
```
