Creating a DwC-A from IFCB Data • iRfcb
…
# Print the final table as tibble
tibble(occurrence_df)

## # A tibble: 101 × 22
##    occurrenceID         eventID eventDate  occurrenceStatus collectionCode type 
##    <chr>                <chr>   <date>     <chr>            <chr>          <chr>
##  1 d9ca9a78-cdf1-4f26-… 38a00d… 2022-05-22 present          iRfcb          Stil…
##  2 1e2bca10-cdb4-4cf9-… 38a00d… 2022-05-22 present          iRfcb          Stil…
##  3 8b511326-52d2-4ce0-… 38a00d… 2022-05-22 present          iRfcb          Stil…
##  4 b152a18e-e306-422b-… 38a00d… 2022-05-22 present          iRfcb          Stil…
##  5 fff294f6-7f3b-40e2-… dd9f06… 2022-05-22 present          iRfcb          Stil…
##  6 9f312c2e-113c-4187-… 7ccabc… 2022-07-12 present          iRfcb          Stil…
##  7 33e495d1-9782-4aa8-… 7ccabc… 2022-07-12 present          iRfcb          Stil…
##  8 9ae1ac30-d5a8-4b14-… 7ccabc… 2022-07-12 present          iRfcb          Stil…
##  9 0347e880-1348-454c-… 1af7e6… 2022-07-12 present          iRfcb          Stil…
## 10 1841cdbd-5e88-44e1-… 1af7e6… 2022-07-12 present          iRfcb          Stil…
## # ℹ 91 more rows
## # ℹ 16 more variables: basisOfRecord <chr>,
## #   identificationVerificationStatus <chr>, identificationReferences <chr>,
## #   identifiedBy <chr>, associatedMedia <chr>, scientificName <chr>,
## #   scientificNameAuthorship <chr>, scientificNameID <chr>, taxonRank <chr>,
## #   kingdom <chr>, phylum <chr>, class <chr>, order <chr>, family <chr>,
## #   genus <chr>, verbatimIdentification <chr>
…
# Merge the data with NERC vocabularies and relocate columns
mof_df <- data_mof %>%
  left_join(nerc_vocab, by = "measurementType") %>%
  relocate(measurementTypeID, .after = measurementType) %>%
  relocate(measurementID, .before = 1)

# Print the final table as tibble
tibble(mof_df)

## # A tibble: 415 × 10
##    measurementID              eventID parentEventID occurrenceID measurementType
##    <chr>                      <chr>   <chr>         <chr>        <chr>          
##  1 1d5a9e5d-15ba-445f-9f89-7… 1905d9… NA            NA           Imaging instru…
##  2 1d83c524-d2af-4a94-9800-3… 1905d9… NA            NA           Instrument ide…
##  3 297d1018-a1bc-4ac6-86ca-c… 38a00d… 1905d921-7d2… NA           Sample volume  
##  4 7efc1978-864a-4c51-a003-e… dd9f06… 1905d921-7d2… NA           Sample volume  
##  5 c8958c39-2d63-4745-9b45-e… 7ccabc… 1905d921-7d2… NA           Sample volume  
##  6 59cd433b-2427-49ba-8a05-e… 1af7e6… 1905d921-7d2… NA           Sample volume  
##  7 5eb84d06-f04d-49f6-bec9-b… 7f5f2c… 1905d921-7d2… NA           Sample volume  
##  8 25e4f31a-72c1-4e0a-b564-9… 2a8331… 1905d921-7d2… NA           Sample volume  
##  9 31516452-ec44-4bd1-bf91-b… 3d5d32… 1905d921-7d2… NA           Sample volume  
## 10 9ea31cf8-0a5b-414f-aaee-9… 6f5092… 1905d921-7d2… NA           Sample volume  
## # ℹ 405 more rows
## # ℹ 5 more variables: measurementTypeID <chr>, measurementValue <chr>,
## #   measurementValueID <chr>, measurementUnit <chr>, measurementUnitID <chr>
…
