…
### Read Feature Data

Read all feature files (`.csv`) from a folder:

``` r
# Read feature files from a folder
features <- ifcb_read_features("data/features/2023/",
                               verbose = FALSE) # Do not print progress bar

# Print output from the first sample in the list
print(features[[1]])
```

    ## # A tibble: 1,218 × 237
    ##    roi_number  Area Biovolume BoundingBox_xwidth BoundingBox_ywidth ConvexArea
    ##         <dbl> <dbl>     <dbl>              <dbl>              <dbl>      <dbl>
    ##  1          2   446     6083.                 31                 21        542
    ##  2          3  4326   142783.                111                 63       5186
    ##  3          4  9739   336908.                202                129      10581
    ##  4          5   580     9187.                 27                 28        602
    ##  5          6  3927   120367.                 99                 50       4191
    ##  6          7   290     3112.                 22                 20        335
    ##  7          8  4437   183891.                 90                 62       4894
    ##  8          9   576     9297.                 27                 29        605
    ##  9         10   540     7712.                 28                 25        564
    ## 10         11   990    18779.                 53                 31       1197
    ## # ℹ 1,208 more rows
    ## # ℹ 231 more variables: ConvexPerimeter <dbl>, Eccentricity <dbl>,
    ## #   EquivDiameter <dbl>, Extent <dbl>, FeretDiameter <dbl>, H180 <dbl>,
    ## #   H90 <dbl>, Hflip <dbl>, MajorAxisLength <dbl>, MinorAxisLength <dbl>,
    ## #   Orientation <dbl>, Perimeter <dbl>, RWcenter2total_powerratio <dbl>,
    ## #   RWhalfpowerintegral <dbl>, Solidity <dbl>, moment_invariant1 <dbl>,
    ## #   moment_invariant2 <dbl>, moment_invariant3 <dbl>, …

``` r
# Read only multiblob feature files
multiblob_features <- ifcb_read_features("data/features/2023", 
                                         multiblob = TRUE,
                                         verbose = FALSE)

# Print output from the first sample in the list
print(multiblob_features[[1]])
```

    ## # A tibble: 26 × 22
    ##    roi_number blob_number  Area MajorAxisLength MinorAxisLength Eccentricity
    ##         <dbl>       <dbl> <dbl>           <dbl>           <dbl>        <dbl>
    ##  1        154           1  3647           110.             45.0        0.912
    ##  2        154           2  1626            77.5            30.7        0.918
    ##  3        214           1  7456           232.            123.         0.849
    ##  4        214           2  4840           102.             68.3        0.741
    ##  5        214           3   910            54.2            28.5        0.850
    ##  6        214           4   153            19.0            10.9        0.817
    ##  7        447           1 29964           808.             64.7        0.997
    ##  8        447           2   668            77.4            34.3        0.896
    ##  9        537           1  2989            65.1            59.1        0.419
    ## 10        537           2  2978            63.5            60.1        0.323
    ## # ℹ 16 more rows
    ## # ℹ 16 more variables: Orientation <dbl>, ConvexArea <dbl>,
    ## #   EquivDiameter <dbl>, Solidity <dbl>, Extent <dbl>, Perimeter <dbl>,
    ## #   ConvexPerimeter <dbl>, FeretDiameter <dbl>, BoundingBox_xwidth <dbl>,
    ## #   BoundingBox_ywidth <dbl>, shapehist_mean_normEqD <dbl>,
    ## #   shapehist_mode_normEqD <dbl>, shapehist_median_normEqD <dbl>,
    ## #   shapehist_skewness_normEqD <dbl>, shapehist_kurtosis_normEqD <dbl>, …
…
